[gd_resource type="SpatialMaterial" load_steps=2 format=2]

[ext_resource path="res://materials/TexturesCom_Brick_StoneCladding5_512/TexturesCom_Brick_StoneCladding5_512_albedo.jpg" type="Texture" id=1]

[resource]
flags_unshaded = true
albedo_color = Color( 0.0784314, 0.0784314, 0.0784314, 1 )
albedo_texture = ExtResource( 1 )
uv1_scale = Vector3( 5, 5, 5 )
uv1_triplanar = true
